[
{"typeId":28432,"uncompressedTypeId":1230 ,"name":"Compressed Veldspar"},
{"typeId":28430,"uncompressedTypeId":17470,"name":"Compressed Concentrated Veldspar"},
{"typeId":28431,"uncompressedTypeId":17471,"name":"Compressed Dense Veldspar"},
{"typeId":28429,"uncompressedTypeId":1228 ,"name":"Compressed Scordite"},
{"typeId":28427,"uncompressedTypeId":17463,"name":"Compressed Condensed Scordite"},
{"typeId":28428,"uncompressedTypeId":17464,"name":"Compressed Massive Scordite"},
{"typeId":28424,"uncompressedTypeId":1224 ,"name":"Compressed Pyroxeres"},
{"typeId":28425,"uncompressedTypeId":17459,"name":"Compressed Solid Pyroxeres"},
{"typeId":28426,"uncompressedTypeId":17460,"name":"Compressed Viscous Pyroxeres"},
{"typeId":28422,"uncompressedTypeId":18   ,"name":"Compressed Plagioclase"},
{"typeId":28421,"uncompressedTypeId":17455,"name":"Compressed Azure Plagioclase"},
{"typeId":28423,"uncompressedTypeId":17456,"name":"Compressed Rich Plagioclase"},
{"typeId":28416,"uncompressedTypeId":1227 ,"name":"Compressed Omber"},
{"typeId":28417,"uncompressedTypeId":17867,"name":"Compressed Silvery Omber"},
{"typeId":28415,"uncompressedTypeId":17868,"name":"Compressed Golden Omber"},
{"typeId":28410,"uncompressedTypeId":20   ,"name":"Compressed Kernite"},
{"typeId":28411,"uncompressedTypeId":17452,"name":"Compressed Luminous Kernite"},
{"typeId":28409,"uncompressedTypeId":17453,"name":"Compressed Fiery Kernite"},
{"typeId":28406,"uncompressedTypeId":1226 ,"name":"Compressed Jaspet"},
{"typeId":28408,"uncompressedTypeId":17448,"name":"Compressed Pure Jaspet"},
{"typeId":28407,"uncompressedTypeId":17449,"name":"Compressed Pristine Jaspet"},
{"typeId":28403,"uncompressedTypeId":1231 ,"name":"Compressed Hemorphite"},
{"typeId":28405,"uncompressedTypeId":17444,"name":"Compressed Vivid Hemorphite"},
{"typeId":28404,"uncompressedTypeId":17445,"name":"Compressed Radiant Hemorphite"},
{"typeId":28401,"uncompressedTypeId":21   ,"name":"Compressed Hedbergite"},
{"typeId":28402,"uncompressedTypeId":17440,"name":"Compressed Vitric Hedbergite"},
{"typeId":28400,"uncompressedTypeId":17441,"name":"Compressed Glazed Hedbergite"},
{"typeId":28397,"uncompressedTypeId":1229 ,"name":"Compressed Gneiss"},
{"typeId":28398,"uncompressedTypeId":17865,"name":"Compressed Iridescent Gneiss"},
{"typeId":28399,"uncompressedTypeId":17866,"name":"Compressed Prismatic Gneiss"},
{"typeId":28394,"uncompressedTypeId":1232 ,"name":"Compressed Dark Ochre"},
{"typeId":28396,"uncompressedTypeId":17436,"name":"Compressed Onyx Ochre"},
{"typeId":28395,"uncompressedTypeId":17437,"name":"Compressed Obsidian Ochre"},
{"typeId":28420,"uncompressedTypeId":19   ,"name":"Compressed Spodumain"},
{"typeId":28418,"uncompressedTypeId":17466,"name":"Compressed Bright Spodumain"},
{"typeId":28419,"uncompressedTypeId":17467,"name":"Compressed Gleaming Spodumain"},
{"typeId":28391,"uncompressedTypeId":1225 ,"name":"Compressed Crokite"},
{"typeId":28393,"uncompressedTypeId":17432,"name":"Compressed Sharp Crokite"},
{"typeId":28392,"uncompressedTypeId":17433,"name":"Compressed Crystalline Crokite"},
{"typeId":28388,"uncompressedTypeId":1223 ,"name":"Compressed Bistot"},
{"typeId":28390,"uncompressedTypeId":17428,"name":"Compressed Triclinic Bistot"},
{"typeId":28389,"uncompressedTypeId":17429,"name":"Compressed Monoclinic Bistot"},
{"typeId":28367,"uncompressedTypeId":22   ,"name":"Compressed Arkonor"},
{"typeId":28385,"uncompressedTypeId":17425,"name":"Compressed Crimson Arkonor"},
{"typeId":28387,"uncompressedTypeId":17426,"name":"Compressed Prime Arkonor"},
{"typeId":28413,"uncompressedTypeId":11396,"name":"Compressed Mercoxit"},
{"typeId":28412,"uncompressedTypeId":17869,"name":"Compressed Magma Mercoxit"},
{"typeId":28414,"uncompressedTypeId":17870,"name":"Compressed Vitreous Mercoxit"},
{"typeId":28433,"name":"Compressed Blue Ice"},
{"typeId":28434,"name":"Compressed Clear Icicle"},
{"typeId":28435,"name":"Compressed Dark Glitter"},
{"typeId":28436,"name":"Compressed Enriched Clear Icicle"},
{"typeId":28437,"name":"Compressed Gelidus"},
{"typeId":28438,"name":"Compressed Glacial Mass"},
{"typeId":28439,"name":"Compressed Glare Crust"},
{"typeId":28440,"name":"Compressed Krystallos"},
{"typeId":28441,"name":"Compressed Pristine White Glaze"},
{"typeId":28442,"name":"Compressed Smooth Glacial Mass"},
{"typeId":28443,"name":"Compressed Thick Blue Ice"},
{"typeId":28444,"name":"Compressed White Glaze"}]
